1.000000000000000000e+00
1.000000000000000000e+00
1.000000000000000000e+00
1.000000000000000000e+00
1.000000000000000000e+00
1.166666666666666741e+00
1.166666666666666741e+00
1.199999999999999956e+00
2.000000000000000000e+00
2.000000000000000000e+00
2.033333333333333215e+00
3.100000000000000089e+00
1.966666666666666563e+00
1.966666666666666563e+00
1.966666666666666563e+00
1.533333333333333437e+00
1.766666666666666607e+00
1.366666666666666696e+00
2.000000000000000000e+00
2.000000000000000000e+00
2.000000000000000000e+00
2.033333333333333215e+00
2.100000000000000089e+00
3.233333333333333393e+00
5.266666666666666607e+00
3.000000000000000000e+00
3.033333333333333215e+00
2.000000000000000000e+00
2.033333333333333215e+00
2.000000000000000000e+00
3.000000000000000000e+00
2.333333333333333481e+00
2.966666666666666785e+00
2.299999999999999822e+00
2.000000000000000000e+00
2.066666666666666874e+00
1.606666666666666643e+01
9.033333333333333215e+00
6.799999999999999822e+00
6.033333333333333215e+00
5.599999999999999645e+00
4.566666666666666430e+00
5.099999999999999645e+00
5.099999999999999645e+00
4.000000000000000000e+00
4.000000000000000000e+00
3.933333333333333126e+00
4.966666666666666785e+00
5.913333333333333286e+01
3.306666666666666998e+01
2.573333333333333428e+01
1.989999999999999858e+01
1.643333333333333357e+01
1.403333333333333321e+01
1.480000000000000071e+01
1.413333333333333286e+01
1.276666666666666750e+01
1.283333333333333393e+01
1.069999999999999929e+01
1.059999999999999964e+01
2.648333333333333144e+02
1.324000000000000057e+02
9.209999999999999432e+01
7.256666666666666288e+01
6.406666666666666288e+01
5.403333333333333144e+01
6.413333333333333997e+01
5.963333333333333286e+01
4.886666666666666714e+01
4.813333333333333286e+01
4.333333333333333570e+01
4.036666666666666714e+01
